<?xml version="1.0" encoding="utf-8"?>
<!-- Generator: Adobe Illustrator 22.0.1, SVG Export Plug-In . SVG Version: 6.00 Build 0)  -->
<svg version="1.1" id="Layer_1" xmlns="http://www.w3.org/2000/svg" xmlns:xlink="http://www.w3.org/1999/xlink" x="0px" y="0px"
	 width="17.8px" height="17.8px" viewBox="0 0 17.8 17.8" enable-background="new 0 0 17.8 17.8" xml:space="preserve">
<polygon fill="#FFFFFF" points="17.8,15.1 11.7,8.9 17.8,2.7 15.1,0 8.9,6.2 2.7,0 0,2.7 6.2,8.9 0,15.1 2.7,17.8 8.9,11.7 
	15.1,17.8 "/>
</svg>
